sim/verilog/tests/bfm/axi4/basic.vcd
$date
	Wed Feb 24 01:29:48 2021
$end
$version
	ModelSim Version 2020.1_3
$end
$timescale
	1ps
$end

$scope module testbench_axi_master_bfm $end
$var reg 1 ! aclk $end
$var reg 1 " aresetn $end
$var reg 1 # test_passed $end
$var wire 1 $ araddr [31] $end
$var wire 1 % araddr [30] $end
$var wire 1 & araddr [29] $end
$var wire 1 ' araddr [28] $end
$var wire 1 ( araddr [27] $end
$var wire 1 ) araddr [26] $end
$var wire 1 * araddr [25] $end
$var wire 1 + araddr [24] $end
$var wire 1 , araddr [23] $end
$var wire 1 - araddr [22] $end
$var wire 1 . araddr [21] $end
$var wire 1 / araddr [20] $end
$var wire 1 0 araddr [19] $end
$var wire 1 1 araddr [18] $end
$var wire 1 2 araddr [17] $end
$var wire 1 3 araddr [16] $end
$var wire 1 4 araddr [15] $end
$var wire 1 5 araddr [14] $end
$var wire 1 6 araddr [13] $end
$var wire 1 7 araddr [12] $end
$var wire 1 8 araddr [11] $end
$var wire 1 9 araddr [10] $end
$var wire 1 : araddr [9] $end
$var wire 1 ; araddr [8] $end
$var wire 1 < araddr [7] $end
$var wire 1 = araddr [6] $end
$var wire 1 > araddr [5] $end
$var wire 1 ? araddr [4] $end
$var wire 1 @ araddr [3] $end
$var wire 1 A araddr [2] $end
$var wire 1 B araddr [1] $end
$var wire 1 C araddr [0] $end
$var wire 1 D arcache [3] $end
$var wire 1 E arcache [2] $end
$var wire 1 F arcache [1] $end
$var wire 1 G arcache [0] $end
$var wire 1 H arid [3] $end
$var wire 1 I arid [2] $end
$var wire 1 J arid [1] $end
$var wire 1 K arid [0] $end
$var wire 1 L arlen [3] $end
$var wire 1 M arlen [2] $end
$var wire 1 N arlen [1] $end
$var wire 1 O arlen [0] $end
$var wire 1 P arlock [1] $end
$var wire 1 Q arlock [0] $end
$var wire 1 R arprot [2] $end
$var wire 1 S arprot [1] $end
$var wire 1 T arprot [0] $end
$var wire 1 U arready $end
$var wire 1 V arsize [2] $end
$var wire 1 W arsize [1] $end
$var wire 1 X arsize [0] $end
$var wire 1 Y arvalid $end
$var wire 1 Z awadr [31] $end
$var wire 1 [ awadr [30] $end
$var wire 1 \ awadr [29] $end
$var wire 1 ] awadr [28] $end
$var wire 1 ^ awadr [27] $end
$var wire 1 _ awadr [26] $end
$var wire 1 ` awadr [25] $end
$var wire 1 a awadr [24] $end
$var wire 1 b awadr [23] $end
$var wire 1 c awadr [22] $end
$var wire 1 d awadr [21] $end
$var wire 1 e awadr [20] $end
$var wire 1 f awadr [19] $end
$var wire 1 g awadr [18] $end
$var wire 1 h awadr [17] $end
$var wire 1 i awadr [16] $end
$var wire 1 j awadr [15] $end
$var wire 1 k awadr [14] $end
$var wire 1 l awadr [13] $end
$var wire 1 m awadr [12] $end
$var wire 1 n awadr [11] $end
$var wire 1 o awadr [10] $end
$var wire 1 p awadr [9] $end
$var wire 1 q awadr [8] $end
$var wire 1 r awadr [7] $end
$var wire 1 s awadr [6] $end
$var wire 1 t awadr [5] $end
$var wire 1 u awadr [4] $end
$var wire 1 v awadr [3] $end
$var wire 1 w awadr [2] $end
$var wire 1 x awadr [1] $end
$var wire 1 y awadr [0] $end
$var wire 1 z awburst [1] $end
$var wire 1 { awburst [0] $end
$var wire 1 | awcache [3] $end
$var wire 1 } awcache [2] $end
$var wire 1 ~ awcache [1] $end
$var wire 1 !! awcache [0] $end
$var wire 1 "! awid [3] $end
$var wire 1 #! awid [2] $end
$var wire 1 $! awid [1] $end
$var wire 1 %! awid [0] $end
$var wire 1 &! awlen [3] $end
$var wire 1 '! awlen [2] $end
$var wire 1 (! awlen [1] $end
$var wire 1 )! awlen [0] $end
$var wire 1 *! awlock [1] $end
$var wire 1 +! awlock [0] $end
$var wire 1 ,! awprot [2] $end
$var wire 1 -! awprot [1] $end
$var wire 1 .! awprot [0] $end
$var wire 1 /! awready $end
$var wire 1 0! awsize [2] $end
$var wire 1 1! awsize [1] $end
$var wire 1 2! awsize [0] $end
$var wire 1 3! awvalid $end
$var wire 1 4! bid [3] $end
$var wire 1 5! bid [2] $end
$var wire 1 6! bid [1] $end
$var wire 1 7! bid [0] $end
$var wire 1 8! bresp [1] $end
$var wire 1 9! bresp [0] $end
$var wire 1 :! bvalid $end
$var wire 1 ;! rdata [31] $end
$var wire 1 <! rdata [30] $end
$var wire 1 =! rdata [29] $end
$var wire 1 >! rdata [28] $end
$var wire 1 ?! rdata [27] $end
$var wire 1 @! rdata [26] $end
$var wire 1 A! rdata [25] $end
$var wire 1 B! rdata [24] $end
$var wire 1 C! rdata [23] $end
$var wire 1 D! rdata [22] $end
$var wire 1 E! rdata [21] $end
$var wire 1 F! rdata [20] $end
$var wire 1 G! rdata [19] $end
$var wire 1 H! rdata [18] $end
$var wire 1 I! rdata [17] $end
$var wire 1 J! rdata [16] $end
$var wire 1 K! rdata [15] $end
$var wire 1 L! rdata [14] $end
$var wire 1 M! rdata [13] $end
$var wire 1 N! rdata [12] $end
$var wire 1 O! rdata [11] $end
$var wire 1 P! rdata [10] $end
$var wire 1 Q! rdata [9] $end
$var wire 1 R! rdata [8] $end
$var wire 1 S! rdata [7] $end
$var wire 1 T! rdata [6] $end
$var wire 1 U! rdata [5] $end
$var wire 1 V! rdata [4] $end
$var wire 1 W! rdata [3] $end
$var wire 1 X! rdata [2] $end
$var wire 1 Y! rdata [1] $end
$var wire 1 Z! rdata [0] $end
$var wire 1 [! rid [3] $end
$var wire 1 \! rid [2] $end
$var wire 1 ]! rid [1] $end
$var wire 1 ^! rid [0] $end
$var wire 1 _! rlast $end
$var wire 1 `! rready $end
$var wire 1 a! rresp [1] $end
$var wire 1 b! rresp [0] $end
$var wire 1 c! rvalid $end
$var wire 1 d! test_fail $end
$var wire 1 e! wid [3] $end
$var wire 1 f! wid [2] $end
$var wire 1 g! wid [1] $end
$var wire 1 h! wid [0] $end
$var wire 1 i! wlast $end
$var wire 1 j! wrdata [31] $end
$var wire 1 k! wrdata [30] $end
$var wire 1 l! wrdata [29] $end
$var wire 1 m! wrdata [28] $end
$var wire 1 n! wrdata [27] $end
$var wire 1 o! wrdata [26] $end
$var wire 1 p! wrdata [25] $end
$var wire 1 q! wrdata [24] $end
$var wire 1 r! wrdata [23] $end
$var wire 1 s! wrdata [22] $end
$var wire 1 t! wrdata [21] $end
$var wire 1 u! wrdata [20] $end
$var wire 1 v! wrdata [19] $end
$var wire 1 w! wrdata [18] $end
$var wire 1 x! wrdata [17] $end
$var wire 1 y! wrdata [16] $end
$var wire 1 z! wrdata [15] $end
$var wire 1 {! wrdata [14] $end
$var wire 1 |! wrdata [13] $end
$var wire 1 }! wrdata [12] $end
$var wire 1 ~! wrdata [11] $end
$var wire 1 !" wrdata [10] $end
$var wire 1 "" wrdata [9] $end
$var wire 1 #" wrdata [8] $end
$var wire 1 $" wrdata [7] $end
$var wire 1 %" wrdata [6] $end
$var wire 1 &" wrdata [5] $end
$var wire 1 '" wrdata [4] $end
$var wire 1 (" wrdata [3] $end
$var wire 1 )" wrdata [2] $end
$var wire 1 *" wrdata [1] $end
$var wire 1 +" wrdata [0] $end
$var wire 1 ," wready $end
$var wire 1 -" wstrb [3] $end
$var wire 1 ." wstrb [2] $end
$var wire 1 /" wstrb [1] $end
$var wire 1 0" wstrb [0] $end
$var wire 1 1" wvalid $end
$var wire 1 2" bready $end

$scope module master $end
$var wire 1 3" aclk $end
$var wire 1 4" aresetn $end
$var reg 4 5" awid [3:0] $end
$var reg 32 6" awadr [31:0] $end
$var reg 4 7" awlen [3:0] $end
$var reg 3 8" awsize [2:0] $end
$var reg 2 9" awburst [1:0] $end
$var reg 2 :" awlock [1:0] $end
$var reg 4 ;" awcache [3:0] $end
$var reg 3 <" awprot [2:0] $end
$var reg 1 =" awvalid $end
$var wire 1 /! awready $end
$var reg 4 >" wid [3:0] $end
$var reg 32 ?" wrdata [31:0] $end
$var reg 4 @" wstrb [3:0] $end
$var reg 1 A" wlast $end
$var reg 1 B" wvalid $end
$var wire 1 ," wready $end
$var reg 4 C" bid [3:0] $end
$var reg 2 D" bresp [1:0] $end
$var reg 1 E" bvalid $end
$var wire 1 2" bready $end
$var reg 4 F" arid [3:0] $end
$var reg 32 G" araddr [31:0] $end
$var reg 4 H" arlen [3:0] $end
$var reg 3 I" arsize [2:0] $end
$var reg 2 J" arlock [1:0] $end
$var reg 4 K" arcache [3:0] $end
$var reg 3 L" arprot [2:0] $end
$var reg 1 M" arvalid $end
$var wire 1 U arready $end
$var wire 1 [! rid [3] $end
$var wire 1 \! rid [2] $end
$var wire 1 ]! rid [1] $end
$var wire 1 ^! rid [0] $end
$var wire 1 ;! rdata [31] $end
$var wire 1 <! rdata [30] $end
$var wire 1 =! rdata [29] $end
$var wire 1 >! rdata [28] $end
$var wire 1 ?! rdata [27] $end
$var wire 1 @! rdata [26] $end
$var wire 1 A! rdata [25] $end
$var wire 1 B! rdata [24] $end
$var wire 1 C! rdata [23] $end
$var wire 1 D! rdata [22] $end
$var wire 1 E! rdata [21] $end
$var wire 1 F! rdata [20] $end
$var wire 1 G! rdata [19] $end
$var wire 1 H! rdata [18] $end
$var wire 1 I! rdata [17] $end
$var wire 1 J! rdata [16] $end
$var wire 1 K! rdata [15] $end
$var wire 1 L! rdata [14] $end
$var wire 1 M! rdata [13] $end
$var wire 1 N! rdata [12] $end
$var wire 1 O! rdata [11] $end
$var wire 1 P! rdata [10] $end
$var wire 1 Q! rdata [9] $end
$var wire 1 R! rdata [8] $end
$var wire 1 S! rdata [7] $end
$var wire 1 T! rdata [6] $end
$var wire 1 U! rdata [5] $end
$var wire 1 V! rdata [4] $end
$var wire 1 W! rdata [3] $end
$var wire 1 X! rdata [2] $end
$var wire 1 Y! rdata [1] $end
$var wire 1 Z! rdata [0] $end
$var wire 1 a! rresp [1] $end
$var wire 1 b! rresp [0] $end
$var wire 1 _! rlast $end
$var wire 1 c! rvalid $end
$var reg 1 N" rready $end
$var reg 1 O" test_fail $end

$scope task write_single $end
$var reg 32 P" address [31:0] $end
$var reg 32 Q" data [31:0] $end
$var reg 3 R" size [2:0] $end
$var reg 4 S" strobe [3:0] $end
$upscope $end

$scope task read_single $end
$var reg 32 T" address [31:0] $end
$var reg 32 U" data [31:0] $end
$var reg 3 V" size [2:0] $end
$var reg 4 W" strobe [3:0] $end
$upscope $end

$scope task read_single_and_check $end
$var reg 32 X" address [31:0] $end
$var reg 32 Y" expected_data [31:0] $end
$var reg 3 Z" size [2:0] $end
$var reg 4 [" strobe [3:0] $end
$var reg 32 \" read_data [31:0] $end
$upscope $end
$upscope $end

$scope module slave $end
$var wire 1 ]" aclk $end
$var wire 1 ^" aresetn $end
$var wire 1 "! awid [3] $end
$var wire 1 #! awid [2] $end
$var wire 1 $! awid [1] $end
$var wire 1 %! awid [0] $end
$var wire 1 Z awadr [31] $end
$var wire 1 [ awadr [30] $end
$var wire 1 \ awadr [29] $end
$var wire 1 ] awadr [28] $end
$var wire 1 ^ awadr [27] $end
$var wire 1 _ awadr [26] $end
$var wire 1 ` awadr [25] $end
$var wire 1 a awadr [24] $end
$var wire 1 b awadr [23] $end
$var wire 1 c awadr [22] $end
$var wire 1 d awadr [21] $end
$var wire 1 e awadr [20] $end
$var wire 1 f awadr [19] $end
$var wire 1 g awadr [18] $end
$var wire 1 h awadr [17] $end
$var wire 1 i awadr [16] $end
$var wire 1 j awadr [15] $end
$var wire 1 k awadr [14] $end
$var wire 1 l awadr [13] $end
$var wire 1 m awadr [12] $end
$var wire 1 n awadr [11] $end
$var wire 1 o awadr [10] $end
$var wire 1 p awadr [9] $end
$var wire 1 q awadr [8] $end
$var wire 1 r awadr [7] $end
$var wire 1 s awadr [6] $end
$var wire 1 t awadr [5] $end
$var wire 1 u awadr [4] $end
$var wire 1 v awadr [3] $end
$var wire 1 w awadr [2] $end
$var wire 1 x awadr [1] $end
$var wire 1 y awadr [0] $end
$var wire 1 &! awlen [3] $end
$var wire 1 '! awlen [2] $end
$var wire 1 (! awlen [1] $end
$var wire 1 )! awlen [0] $end
$var wire 1 0! awsize [2] $end
$var wire 1 1! awsize [1] $end
$var wire 1 2! awsize [0] $end
$var wire 1 z awburst [1] $end
$var wire 1 { awburst [0] $end
$var wire 1 *! awlock [1] $end
$var wire 1 +! awlock [0] $end
$var wire 1 | awcache [3] $end
$var wire 1 } awcache [2] $end
$var wire 1 ~ awcache [1] $end
$var wire 1 !! awcache [0] $end
$var wire 1 ,! awprot [2] $end
$var wire 1 -! awprot [1] $end
$var wire 1 .! awprot [0] $end
$var wire 1 3! awvalid $end
$var reg 1 _" awready $end
$var wire 1 e! wid [3] $end
$var wire 1 f! wid [2] $end
$var wire 1 g! wid [1] $end
$var wire 1 h! wid [0] $end
$var wire 1 j! wrdata [31] $end
$var wire 1 k! wrdata [30] $end
$var wire 1 l! wrdata [29] $end
$var wire 1 m! wrdata [28] $end
$var wire 1 n! wrdata [27] $end
$var wire 1 o! wrdata [26] $end
$var wire 1 p! wrdata [25] $end
$var wire 1 q! wrdata [24] $end
$var wire 1 r! wrdata [23] $end
$var wire 1 s! wrdata [22] $end
$var wire 1 t! wrdata [21] $end
$var wire 1 u! wrdata [20] $end
$var wire 1 v! wrdata [19] $end
$var wire 1 w! wrdata [18] $end
$var wire 1 x! wrdata [17] $end
$var wire 1 y! wrdata [16] $end
$var wire 1 z! wrdata [15] $end
$var wire 1 {! wrdata [14] $end
$var wire 1 |! wrdata [13] $end
$var wire 1 }! wrdata [12] $end
$var wire 1 ~! wrdata [11] $end
$var wire 1 !" wrdata [10] $end
$var wire 1 "" wrdata [9] $end
$var wire 1 #" wrdata [8] $end
$var wire 1 $" wrdata [7] $end
$var wire 1 %" wrdata [6] $end
$var wire 1 &" wrdata [5] $end
$var wire 1 '" wrdata [4] $end
$var wire 1 (" wrdata [3] $end
$var wire 1 )" wrdata [2] $end
$var wire 1 *" wrdata [1] $end
$var wire 1 +" wrdata [0] $end
$var wire 1 -" wstrb [3] $end
$var wire 1 ." wstrb [2] $end
$var wire 1 /" wstrb [1] $end
$var wire 1 0" wstrb [0] $end
$var wire 1 i! wlast $end
$var wire 1 1" wvalid $end
$var reg 1 `" wready $end
$var reg 4 a" bid [3:0] $end
$var reg 2 b" bresp [1:0] $end
$var reg 1 c" bvalid $end
$var wire 1 2" bready $end
$var wire 1 H arid [3] $end
$var wire 1 I arid [2] $end
$var wire 1 J arid [1] $end
$var wire 1 K arid [0] $end
$var wire 1 $ araddr [31] $end
$var wire 1 % araddr [30] $end
$var wire 1 & araddr [29] $end
$var wire 1 ' araddr [28] $end
$var wire 1 ( araddr [27] $end
$var wire 1 ) araddr [26] $end
$var wire 1 * araddr [25] $end
$var wire 1 + araddr [24] $end
$var wire 1 , araddr [23] $end
$var wire 1 - araddr [22] $end
$var wire 1 . araddr [21] $end
$var wire 1 / araddr [20] $end
$var wire 1 0 araddr [19] $end
$var wire 1 1 araddr [18] $end
$var wire 1 2 araddr [17] $end
$var wire 1 3 araddr [16] $end
$var wire 1 4 araddr [15] $end
$var wire 1 5 araddr [14] $end
$var wire 1 6 araddr [13] $end
$var wire 1 7 araddr [12] $end
$var wire 1 8 araddr [11] $end
$var wire 1 9 araddr [10] $end
$var wire 1 : araddr [9] $end
$var wire 1 ; araddr [8] $end
$var wire 1 < araddr [7] $end
$var wire 1 = araddr [6] $end
$var wire 1 > araddr [5] $end
$var wire 1 ? araddr [4] $end
$var wire 1 @ araddr [3] $end
$var wire 1 A araddr [2] $end
$var wire 1 B araddr [1] $end
$var wire 1 C araddr [0] $end
$var wire 1 L arlen [3] $end
$var wire 1 M arlen [2] $end
$var wire 1 N arlen [1] $end
$var wire 1 O arlen [0] $end
$var wire 1 V arsize [2] $end
$var wire 1 W arsize [1] $end
$var wire 1 X arsize [0] $end
$var wire 1 P arlock [1] $end
$var wire 1 Q arlock [0] $end
$var wire 1 D arcache [3] $end
$var wire 1 E arcache [2] $end
$var wire 1 F arcache [1] $end
$var wire 1 G arcache [0] $end
$var wire 1 R arprot [2] $end
$var wire 1 S arprot [1] $end
$var wire 1 T arprot [0] $end
$var wire 1 Y arvalid $end
$var reg 1 d" arready $end
$var reg 4 e" rid [3:0] $end
$var reg 32 f" rdata [31:0] $end
$var reg 2 g" rresp [1:0] $end
$var reg 1 h" rlast $end
$var reg 1 i" rvalid $end
$var wire 1 `! rready $end
$var integer 32 j" i $end
$var reg 32 k" write_address [31:0] $end
$var reg 3 l" write_size [2:0] $end
$var reg 32 m" write_data [31:0] $end
$var reg 4 n" write_strobe [3:0] $end
$var reg 32 o" read_address [31:0] $end
$upscope $end

$scope module test $end
$var integer 32 p" i $end
$var reg 32 q" read_data [31:0] $end
$upscope $end
$upscope $end
$enddefinitions $end
#0
$dumpvars
0!
1"
0#
b0 5"
b0 6"
b0 7"
b0 8"
b0 9"
b0 :"
b0 ;"
b0 <"
0="
b0 >"
b0 ?"
b0 @"
0A"
0B"
b0 C"
b0 D"
0E"
b0 F"
b0 G"
b0 H"
b0 I"
b0 J"
b0 K"
b0 L"
0M"
0N"
0O"
bx P"
bx Q"
bx R"
bx S"
bx T"
bx U"
bx V"
bx W"
bx X"
bx Y"
bx Z"
bx ["
bx \"
x_"
x`"
bx a"
bx b"
xc"
xd"
bx e"
bx f"
bx g"
xh"
xi"
bx k"
bx l"
bx m"
bx n"
bx o"
bx q"
bx j"
bx p"
0C
0B
0A
0@
0?
0>
0=
0<
0;
0:
09
08
07
06
05
04
03
02
01
00
0/
0.
0-
0,
0+
0*
0)
0(
0'
0&
0%
0$
0G
0F
0E
0D
0K
0J
0I
0H
0O
0N
0M
0L
0Q
0P
0T
0S
0R
xU
0X
0W
0V
0Y
0y
0x
0w
0v
0u
0t
0s
0r
0q
0p
0o
0n
0m
0l
0k
0j
0i
0h
0g
0f
0e
0d
0c
0b
0a
0`
0_
0^
0]
0\
0[
0Z
0{
0z
0!!
0~
0}
0|
0%!
0$!
0#!
0"!
0)!
0(!
0'!
0&!
0+!
0*!
0.!
0-!
0,!
x/!
02!
01!
00!
03!
x7!
x6!
x5!
x4!
x9!
x8!
x:!
xZ!
xY!
xX!
xW!
xV!
xU!
xT!
xS!
xR!
xQ!
xP!
xO!
xN!
xM!
xL!
xK!
xJ!
xI!
xH!
xG!
xF!
xE!
xD!
xC!
xB!
xA!
x@!
x?!
x>!
x=!
x<!
x;!
x^!
x]!
x\!
x[!
x_!
0`!
xb!
xa!
xc!
0d!
0h!
0g!
0f!
0e!
0i!
0+"
0*"
0)"
0("
0'"
0&"
0%"
0$"
0#"
0""
0!"
0~!
0}!
0|!
0{!
0z!
0y!
0x!
0w!
0v!
0u!
0t!
0s!
0r!
0q!
0p!
0o!
0n!
0m!
0l!
0k!
0j!
x,"
00"
0/"
0."
0-"
01"
z2"
03"
14"
0]"
1^"
$end
#5
1!
1]"
13"
0_"
0`"
0c"
0d"
b0 f"
0i"
0:!
0Z!
0Y!
0X!
0W!
0V!
0U!
0T!
0S!
0R!
0Q!
0P!
0O!
0N!
0M!
0L!
0K!
0J!
0I!
0H!
0G!
0F!
0E!
0D!
0C!
0B!
0A!
0@!
0?!
0>!
0=!
0<!
0;!
0/!
0,"
0U
0c!
#10
0!
0]"
03"
#11
0"
0^"
04"
#15
1!
1]"
13"
b0 k"
1_"
b0 l"
b0 m"
1`"
b0 n"
b0 a"
b0 b"
b0 o"
b0 g"
0h"
0b!
0a!
09!
08!
07!
06!
05!
04!
0_!
1/!
1,"
#20
0!
0]"
03"
#25
1!
1]"
13"
#30
0!
0]"
03"
#35
1!
1]"
13"
#40
0!
0]"
03"
#45
1!
1]"
13"
#50
0!
0]"
03"
#55
1!
1]"
13"
#60
0!
0]"
03"
#65
1!
1]"
13"
#70
0!
0]"
03"
#75
1!
1]"
13"
#80
0!
0]"
03"
#85
1!
1]"
13"
#90
0!
0]"
03"
#95
1!
1]"
13"
#100
0!
0]"
03"
#105
1!
1]"
13"
1"
1^"
14"
#110
0!
0]"
03"
#115
1!
1]"
13"
0_"
0`"
0/!
0,"
#120
0!
0]"
03"
#125
1!
1]"
13"
#130
0!
0]"
03"
#135
1!
1]"
13"
#140
0!
0]"
03"
#145
1!
1]"
13"
#150
0!
0]"
03"
#155
1!
1]"
13"
#160
0!
0]"
03"
#165
1!
1]"
13"
#170
0!
0]"
03"
#175
1!
1]"
13"
#180
0!
0]"
03"
#185
1!
1]"
13"
#190
0!
0]"
03"
#195
1!
1]"
13"
#200
0!
0]"
03"
#205
1!
1]"
13"
b100 P"
b11011110101011011011111011101111 Q"
b10 R"
b1111 S"
#210
0!
0]"
03"
#215
1!
1]"
13"
b100 6"
1="
b10 8"
13!
11!
1w
#220
0!
0]"
03"
#225
1!
1]"
13"
b1 k"
1_"
b10 l"
1/!
0="
bx 6"
1B"
b11011110101011011011111011101111 ?"
b1111 @"
1A"
03!
11"
10"
1/"
1."
1-"
1+"
1*"
1)"
1("
1&"
1%"
1$"
1""
1!"
1~!
1}!
1|!
1z!
1y!
1w!
1v!
1t!
1r!
1p!
1o!
1n!
1m!
1k!
1j!
xy
xx
xw
xv
xu
xt
xs
xr
xq
xp
xo
xn
xm
xl
xk
xj
xi
xh
xg
xf
xe
xd
xc
xb
xa
x`
x_
x^
x]
x\
x[
xZ
1i!
#230
0!
0]"
03"
#235
1!
1]"
13"
0_"
b11011110101011011011111011101111 m"
1`"
b1111 n"
0/!
1,"
b1000 P"
b10010001101000101011001111000 Q"
0B"
bx ?"
b0 @"
0A"
01"
00"
0/"
0."
0-"
x+"
x*"
x)"
x("
x'"
x&"
x%"
x$"
x#"
x""
x!"
x~!
x}!
x|!
x{!
xz!
xy!
xx!
xw!
xv!
xu!
xt!
xs!
xr!
xq!
xp!
xo!
xn!
xm!
xl!
xk!
xj!
0i!
#240
0!
0]"
03"
#245
1!
1]"
13"
0`"
b1000 6"
1="
0y
0x
0w
1v
0u
0t
0s
0r
0q
0p
0o
0n
0m
0l
0k
0j
0i
0h
0g
0f
0e
0d
0c
0b
0a
0`
0_
0^
0]
0\
0[
0Z
13!
0,"
#250
0!
0]"
03"
#255
1!
1]"
13"
b10 k"
1_"
1/!
0="
bx 6"
1B"
b10010001101000101011001111000 ?"
b1111 @"
1A"
03!
11"
10"
1/"
1."
1-"
0+"
0*"
0)"
1("
1'"
1&"
1%"
0$"
0#"
1""
1!"
0~!
1}!
0|!
1{!
0z!
0y!
0x!
1w!
0v!
1u!
1t!
0s!
0r!
0q!
1p!
0o!
0n!
1m!
0l!
0k!
0j!
xy
xx
xw
xv
xu
xt
xs
xr
xq
xp
xo
xn
xm
xl
xk
xj
xi
xh
xg
xf
xe
xd
xc
xb
xa
x`
x_
x^
x]
x\
x[
xZ
1i!
#260
0!
0]"
03"
#265
1!
1]"
13"
0_"
b10010001101000101011001111000 m"
1`"
0/!
1,"
b1100 P"
b10101011110011011110111100000000 Q"
0B"
bx ?"
b0 @"
0A"
01"
00"
0/"
0."
0-"
x+"
x*"
x)"
x("
x'"
x&"
x%"
x$"
x#"
x""
x!"
x~!
x}!
x|!
x{!
xz!
xy!
xx!
xw!
xv!
xu!
xt!
xs!
xr!
xq!
xp!
xo!
xn!
xm!
xl!
xk!
xj!
0i!
#270
0!
0]"
03"
#275
1!
1]"
13"
0`"
b1100 6"
1="
0y
0x
1w
1v
0u
0t
0s
0r
0q
0p
0o
0n
0m
0l
0k
0j
0i
0h
0g
0f
0e
0d
0c
0b
0a
0`
0_
0^
0]
0\
0[
0Z
13!
0,"
#280
0!
0]"
03"
#285
1!
1]"
13"
b11 k"
1_"
1/!
0="
bx 6"
1B"
b10101011110011011110111100000000 ?"
b1111 @"
1A"
03!
11"
10"
1/"
1."
1-"
0+"
0*"
0)"
0("
0'"
0&"
0%"
0$"
1#"
1""
1!"
1~!
0}!
1|!
1{!
1z!
1y!
0x!
1w!
1v!
0u!
0t!
1s!
1r!
1q!
1p!
0o!
1n!
0m!
1l!
0k!
1j!
xy
xx
xw
xv
xu
xt
xs
xr
xq
xp
xo
xn
xm
xl
xk
xj
xi
xh
xg
xf
xe
xd
xc
xb
xa
x`
x_
x^
x]
x\
x[
xZ
1i!
#290
0!
0]"
03"
#295
1!
1]"
13"
0_"
b10101011110011011110111100000000 m"
1`"
0/!
1,"
b10000 P"
b10101010010101010110011010111011 Q"
0B"
bx ?"
b0 @"
0A"
01"
00"
0/"
0."
0-"
x+"
x*"
x)"
x("
x'"
x&"
x%"
x$"
x#"
x""
x!"
x~!
x}!
x|!
x{!
xz!
xy!
xx!
xw!
xv!
xu!
xt!
xs!
xr!
xq!
xp!
xo!
xn!
xm!
xl!
xk!
xj!
0i!
#300
0!
0]"
03"
#305
1!
1]"
13"
0`"
b10000 6"
1="
0y
0x
0w
0v
1u
0t
0s
0r
0q
0p
0o
0n
0m
0l
0k
0j
0i
0h
0g
0f
0e
0d
0c
0b
0a
0`
0_
0^
0]
0\
0[
0Z
13!
0,"
#310
0!
0]"
03"
#315
1!
1]"
13"
b100 k"
1_"
1/!
0="
bx 6"
1B"
b10101010010101010110011010111011 ?"
b1111 @"
1A"
03!
11"
10"
1/"
1."
1-"
1+"
1*"
0)"
1("
1'"
1&"
0%"
1$"
0#"
1""
1!"
0~!
0}!
1|!
1{!
0z!
1y!
0x!
1w!
0v!
1u!
0t!
1s!
0r!
0q!
1p!
0o!
1n!
0m!
1l!
0k!
1j!
xy
xx
xw
xv
xu
xt
xs
xr
xq
xp
xo
xn
xm
xl
xk
xj
xi
xh
xg
xf
xe
xd
xc
xb
xa
x`
x_
x^
x]
x\
x[
xZ
1i!
#320
0!
0]"
03"
#325
1!
1]"
13"
0_"
b10101010010101010110011010111011 m"
1`"
0/!
1,"
0B"
bx ?"
b0 @"
0A"
01"
00"
0/"
0."
0-"
x+"
x*"
x)"
x("
x'"
x&"
x%"
x$"
x#"
x""
x!"
x~!
x}!
x|!
x{!
xz!
xy!
xx!
xw!
xv!
xu!
xt!
xs!
xr!
xq!
xp!
xo!
xn!
xm!
xl!
xk!
xj!
0i!
#330
0!
0]"
03"
#335
1!
1]"
13"
0`"
0,"
#340
0!
0]"
03"
#345
1!
1]"
13"
#350
0!
0]"
03"
#355
1!
1]"
13"
#360
0!
0]"
03"
#365
1!
1]"
13"
#370
0!
0]"
03"
#375
1!
1]"
13"
#380
0!
0]"
03"
#385
1!
1]"
13"
#390
0!
0]"
03"
#395
1!
1]"
13"
#400
0!
0]"
03"
#405
1!
1]"
13"
#410
0!
0]"
03"
#415
1!
1]"
13"
#420
0!
0]"
03"
#425
1!
1]"
13"
b100 X"
b11011110101011011011111011101111 Y"
b10 Z"
b1111 ["
b100 T"
b10 V"
b1111 W"
b100 G"
1M"
b10 I"
1Y
1W
1A
#430
0!
0]"
03"
#435
1!
1]"
13"
b1 o"
1d"
1U
0M"
1N"
0Y
1`!
#440
0!
0]"
03"
#445
1!
1]"
13"
0d"
b11011110101011011011111011101111 f"
1i"
1Z!
1Y!
1X!
1W!
1U!
1T!
1S!
1Q!
1P!
1O!
1N!
1M!
1K!
1J!
1H!
1G!
1E!
1C!
1A!
1@!
1?!
1>!
1<!
1;!
0U
1c!
0N"
b11011110101011011011111011101111 U"
0`!
#450
0!
0]"
03"
#455
1!
1]"
13"
b0 f"
0i"
0Z!
0Y!
0X!
0W!
0U!
0T!
0S!
0Q!
0P!
0O!
0N!
0M!
0K!
0J!
0H!
0G!
0E!
0C!
0A!
0@!
0?!
0>!
0<!
0;!
0c!
b11011110101011011011111011101111 \"
b1000 X"
b10010001101000101011001111000 Y"
b1000 T"
bx G"
b1000 G"
1M"
0A
1@
1Y
#460
0!
0]"
03"
#465
1!
1]"
13"
b10 o"
1d"
1U
0M"
1N"
0Y
1`!
#470
0!
0]"
03"
#475
1!
1]"
13"
0d"
b10010001101000101011001111000 f"
1i"
1W!
1V!
1U!
1T!
1Q!
1P!
1N!
1L!
1H!
1F!
1E!
1A!
1>!
0U
1c!
0N"
b10010001101000101011001111000 U"
0`!
#480
0!
0]"
03"
#485
1!
1]"
13"
b0 f"
0i"
0W!
0V!
0U!
0T!
0Q!
0P!
0N!
0L!
0H!
0F!
0E!
0A!
0>!
0c!
b10010001101000101011001111000 \"
b1100 X"
b10101011110011011110111100000000 Y"
b1100 T"
bx G"
b1100 G"
1M"
1A
1Y
#490
0!
0]"
03"
#495
1!
1]"
13"
b11 o"
1d"
1U
0M"
1N"
0Y
1`!
#500
0!
0]"
03"
#505
1!
1]"
13"
0d"
b10101011110011011110111100000000 f"
1i"
1R!
1Q!
1P!
1O!
1M!
1L!
1K!
1J!
1H!
1G!
1D!
1C!
1B!
1A!
1?!
1=!
1;!
0U
1c!
0N"
b10101011110011011110111100000000 U"
0`!
#510
0!
0]"
03"
#515
1!
1]"
13"
b0 f"
0i"
0R!
0Q!
0P!
0O!
0M!
0L!
0K!
0J!
0H!
0G!
0D!
0C!
0B!
0A!
0?!
0=!
0;!
0c!
b10101011110011011110111100000000 \"
b10000 X"
b10101010010101010110011010111011 Y"
b10000 T"
bx G"
b10000 G"
1M"
0A
0@
1?
1Y
#520
0!
0]"
03"
#525
1!
1]"
13"
b100 o"
1d"
1U
0M"
1N"
0Y
1`!
#530
0!
0]"
03"
#535
1!
1]"
13"
0d"
b10101010010101010110011010111011 f"
1i"
1Z!
1Y!
1W!
1V!
1U!
1S!
1Q!
1P!
1M!
1L!
1J!
1H!
1F!
1D!
1A!
1?!
1=!
1;!
0U
1c!
0N"
b10101010010101010110011010111011 U"
0`!
#540
0!
0]"
03"
